<?xml version="1.0" encoding="UTF-8" standalone="no"?>
<!-- Created with Inkscape (http://www.inkscape.org/) -->

<svg
   width="64"
   height="64"
   viewBox="0 0 16.933333 16.933333"
   version="1.1"
   id="svg8"
   inkscape:version="1.1.2 (0a00cf5339, 2022-02-04)"
   sodipodi:docname="Icons.svg"
   inkscape:export-filename="/home/vlad/prj/HP_GasMix/src/android/res/Icon256.png"
   inkscape:export-xdpi="96"
   inkscape:export-ydpi="96"
   xmlns:inkscape="http://www.inkscape.org/namespaces/inkscape"
   xmlns:sodipodi="http://sodipodi.sourceforge.net/DTD/sodipodi-0.dtd"
   xmlns:xlink="http://www.w3.org/1999/xlink"
   xmlns="http://www.w3.org/2000/svg"
   xmlns:svg="http://www.w3.org/2000/svg"
   xmlns:rdf="http://www.w3.org/1999/02/22-rdf-syntax-ns#"
   xmlns:cc="http://creativecommons.org/ns#"
   xmlns:dc="http://purl.org/dc/elements/1.1/">
  <defs
     id="defs2">
    <linearGradient
       inkscape:collect="always"
       id="linearGradient37642">
      <stop
         style="stop-color:#cecece;stop-opacity:1"
         offset="0"
         id="stop37638" />
      <stop
         style="stop-color:#ffffff;stop-opacity:1;"
         offset="0.30069968"
         id="stop38718" />
      <stop
         style="stop-color:#cccccc;stop-opacity:1"
         offset="1"
         id="stop37640" />
    </linearGradient>
    <linearGradient
       inkscape:collect="always"
       id="linearGradient36978">
      <stop
         style="stop-color:#ffffff;stop-opacity:1;"
         offset="0"
         id="stop36974" />
      <stop
         style="stop-color:#cecece;stop-opacity:1"
         offset="1"
         id="stop36976" />
    </linearGradient>
    <linearGradient
       inkscape:collect="always"
       id="linearGradient30517">
      <stop
         style="stop-color:#d5f1dc;stop-opacity:1"
         offset="0"
         id="stop30513" />
      <stop
         style="stop-color:#46d455;stop-opacity:1"
         offset="1"
         id="stop30515" />
    </linearGradient>
    <linearGradient
       inkscape:collect="always"
       id="linearGradient27128">
      <stop
         style="stop-color:#ffffff;stop-opacity:1;"
         offset="0"
         id="stop27124" />
      <stop
         style="stop-color:#fdfdfd;stop-opacity:1"
         offset="0.68477231"
         id="stop29802" />
      <stop
         style="stop-color:#aaaaaa;stop-opacity:1"
         offset="1"
         id="stop27126" />
    </linearGradient>
    <marker
       style="overflow:visible"
       id="EmptyDiamondL"
       refX="0.0"
       refY="0.0"
       orient="auto"
       inkscape:stockid="EmptyDiamondL"
       inkscape:isstock="true">
      <path
         transform="scale(0.8)"
         style="fill-rule:evenodd;fill:context-fill;stroke:context-stroke;stroke-width:1.0pt"
         d="M 0,-7.0710768 L -7.0710894,0 L 0,7.0710589 L 7.0710462,0 L 0,-7.0710768 z "
         id="path24521" />
    </marker>
    <marker
       style="overflow:visible"
       id="DiamondL"
       refX="0.0"
       refY="0.0"
       orient="auto"
       inkscape:stockid="DiamondL"
       inkscape:isstock="true">
      <path
         transform="scale(0.8)"
         style="fill-rule:evenodd;fill:context-stroke;stroke:context-stroke;stroke-width:1.0pt"
         d="M 0,-7.0710768 L -7.0710894,0 L 0,7.0710589 L 7.0710462,0 L 0,-7.0710768 z "
         id="path24494" />
    </marker>
    <marker
       style="overflow:visible"
       id="Tail"
       refX="0.0"
       refY="0.0"
       orient="auto"
       inkscape:stockid="Tail"
       inkscape:isstock="true">
      <g
         transform="scale(-1.2)"
         id="g24463">
        <path
           style="fill:none;fill-rule:evenodd;stroke:context-stroke;stroke-width:0.8;stroke-linecap:round"
           d="M -3.8048674,-3.9585227 L 0.54352094,0"
           id="path24451" />
        <path
           style="fill:none;fill-rule:evenodd;stroke:context-stroke;stroke-width:0.8;stroke-linecap:round"
           d="M -1.2866832,-3.9585227 L 3.0617053,0"
           id="path24453" />
        <path
           style="fill:none;fill-rule:evenodd;stroke:context-stroke;stroke-width:0.8;stroke-linecap:round"
           d="M 1.3053582,-3.9585227 L 5.6537466,0"
           id="path24455" />
        <path
           style="fill:none;fill-rule:evenodd;stroke:context-stroke;stroke-width:0.8;stroke-linecap:round"
           d="M -3.8048674,4.1775838 L 0.54352094,0.21974226"
           id="path24457" />
        <path
           style="fill:none;fill-rule:evenodd;stroke:context-stroke;stroke-width:0.8;stroke-linecap:round"
           d="M -1.2866832,4.1775838 L 3.0617053,0.21974226"
           id="path24459" />
        <path
           style="fill:none;fill-rule:evenodd;stroke:context-stroke;stroke-width:0.8;stroke-linecap:round"
           d="M 1.3053582,4.1775838 L 5.6537466,0.21974226"
           id="path24461" />
      </g>
    </marker>
    <marker
       style="overflow:visible"
       id="SquareL"
       refX="0.0"
       refY="0.0"
       orient="auto"
       inkscape:stockid="SquareL"
       inkscape:isstock="true">
      <path
         transform="scale(0.8)"
         style="fill-rule:evenodd;fill:context-stroke;stroke:context-stroke;stroke-width:1.0pt"
         d="M -5.0,-5.0 L -5.0,5.0 L 5.0,5.0 L 5.0,-5.0 L -5.0,-5.0 z "
         id="path24485" />
    </marker>
    <marker
       inkscape:stockid="DistanceStart"
       orient="auto"
       refY="0.0"
       refX="0.0"
       id="marker24874"
       style="overflow:visible"
       inkscape:isstock="true">
      <g
         id="g24872">
        <path
           id="path24866"
           d="M 0,0 L 2,0"
           style="fill:none;stroke:context-fill;stroke-width:1.15;stroke-linecap:square" />
        <path
           id="path24868"
           d="M 0,0 L 13,4 L 9,0 13,-4 L 0,0 z "
           style="fill:context-stroke;fill-rule:evenodd;stroke:none" />
        <path
           id="path24870"
           d="M 0,-4 L 0,40"
           style="fill:none;stroke:context-stroke;stroke-width:1;stroke-linecap:square" />
      </g>
    </marker>
    <marker
       orient="auto"
       refY="0"
       refX="0"
       id="InfiniteLineEnd"
       inkscape:stockid="InfiniteLineEnd"
       style="overflow:visible"
       inkscape:isstock="true">
      <g
         style="fill:context-stroke"
         id="g24656">
        <circle
           cx="3"
           cy="0"
           r="0.8"
           id="circle24650" />
        <circle
           cx="6.5"
           cy="0"
           r="0.8"
           id="circle24652" />
        <circle
           cx="10"
           cy="0"
           r="0.8"
           id="circle24654" />
      </g>
    </marker>
    <marker
       inkscape:stockid="DistanceStart"
       orient="auto"
       refY="0.0"
       refX="0.0"
       id="marker24793"
       style="overflow:visible"
       inkscape:isstock="true">
      <g
         id="g24791">
        <path
           id="path24785"
           d="M 0,0 L 2,0"
           style="fill:none;stroke:context-fill;stroke-width:1.15;stroke-linecap:square" />
        <path
           id="path24787"
           d="M 0,0 L 13,4 L 9,0 13,-4 L 0,0 z "
           style="fill:context-stroke;fill-rule:evenodd;stroke:none" />
        <path
           id="path24789"
           d="M 0,-4 L 0,40"
           style="fill:none;stroke:context-stroke;stroke-width:1;stroke-linecap:square" />
      </g>
    </marker>
    <marker
       inkscape:stockid="DistanceStart"
       orient="auto"
       refY="0.0"
       refX="0.0"
       id="DistanceStart"
       style="overflow:visible"
       inkscape:isstock="true">
      <g
         id="g2300">
        <path
           id="path2306"
           d="M 0,0 L 2,0"
           style="fill:none;stroke:context-fill;stroke-width:1.15;stroke-linecap:square" />
        <path
           id="path2302"
           d="M 0,0 L 13,4 L 9,0 13,-4 L 0,0 z "
           style="fill:context-stroke;fill-rule:evenodd;stroke:none" />
        <path
           id="path2304"
           d="M 0,-4 L 0,40"
           style="fill:none;stroke:context-stroke;stroke-width:1;stroke-linecap:square" />
      </g>
    </marker>
    <filter
       style="color-interpolation-filters:sRGB;"
       inkscape:label="Drop Shadow"
       id="filter1246"
       x="-0.51451893"
       y="-0.096169808"
       width="2.1545986"
       height="1.2132664">
      <feFlood
         flood-opacity="0.498039"
         flood-color="rgb(0,0,0)"
         result="flood"
         id="feFlood1236" />
      <feComposite
         in="flood"
         in2="SourceGraphic"
         operator="in"
         result="composite1"
         id="feComposite1238" />
      <feGaussianBlur
         in="composite1"
         stdDeviation="0.3"
         result="blur"
         id="feGaussianBlur1240" />
      <feOffset
         dx="0.19999999999999996"
         dy="0.20000000000000001"
         result="offset"
         id="feOffset1242" />
      <feComposite
         in="SourceGraphic"
         in2="offset"
         operator="over"
         result="composite2"
         id="feComposite1244" />
    </filter>
    <radialGradient
       inkscape:collect="always"
       xlink:href="#linearGradient27128"
       id="radialGradient27130"
       cx="12.372921"
       cy="4.4637709"
       fx="12.372921"
       fy="4.4637709"
       r="3.7863187"
       gradientTransform="matrix(1.1442245,0.00505926,-0.00497818,1.1258877,-1.7622557,-0.62453189)"
       gradientUnits="userSpaceOnUse" />
    <radialGradient
       inkscape:collect="always"
       xlink:href="#linearGradient30517"
       id="radialGradient30521"
       cx="24.104511"
       cy="55.338131"
       fx="24.104511"
       fy="55.338131"
       r="19.842091"
       gradientTransform="matrix(0.28623421,0.09343058,-0.11925002,0.36533473,22.451151,33.012514)"
       gradientUnits="userSpaceOnUse" />
    <radialGradient
       inkscape:collect="always"
       xlink:href="#linearGradient36978"
       id="radialGradient36980"
       cx="21.942316"
       cy="30.166668"
       fx="21.942316"
       fy="30.166668"
       r="9.6040515"
       gradientTransform="matrix(0.4773349,-0.00163706,0.01661193,4.8437203,14.30524,-115.84954)"
       gradientUnits="userSpaceOnUse" />
    <linearGradient
       inkscape:collect="always"
       xlink:href="#linearGradient37642"
       id="linearGradient37820"
       x1="19.695795"
       y1="22.063423"
       x2="19.695795"
       y2="29.926044"
       gradientUnits="userSpaceOnUse" />
  </defs>
  <sodipodi:namedview
     id="base"
     pagecolor="#ffffff"
     bordercolor="#666666"
     borderopacity="1.0"
     inkscape:pageopacity="0.0"
     inkscape:pageshadow="2"
     inkscape:zoom="6.6066974"
     inkscape:cx="-5.9787814"
     inkscape:cy="-10.67099"
     inkscape:document-units="px"
     inkscape:current-layer="g30303"
     showgrid="false"
     units="px"
     width="64px"
     inkscape:snap-grids="true"
     inkscape:window-width="1920"
     inkscape:window-height="1175"
     inkscape:window-x="1920"
     inkscape:window-y="0"
     inkscape:window-maximized="1"
     inkscape:pagecheckerboard="0"
     showguides="false"
     inkscape:snap-nodes="true">
    <inkscape:grid
       type="xygrid"
       id="grid896"
       spacingx="2.1166666"
       spacingy="2.1166666"
       empspacing="4" />
  </sodipodi:namedview>
  <metadata
     id="metadata5">
    <rdf:RDF>
      <cc:Work
         rdf:about="">
        <dc:format>image/svg+xml</dc:format>
        <dc:type
           rdf:resource="http://purl.org/dc/dcmitype/StillImage" />
      </cc:Work>
    </rdf:RDF>
  </metadata>
  <g
     inkscape:label="Props"
     inkscape:groupmode="layer"
     id="layer1"
     transform="translate(0,-280.06667)"
     style="display:none">
    <circle
       style="fill:#fffff7;fill-opacity:1;stroke:#000000;stroke-width:0.529167;stroke-linecap:round;stroke-miterlimit:4;stroke-dasharray:none;stroke-dashoffset:0;stroke-opacity:1;filter:url(#filter1246)"
       id="path815"
       cx="7.0993462"
       cy="283.55301"
       r="2.0546346" />
    <circle
       r="2.0546346"
       cy="293.40857"
       cx="7.0993462"
       id="circle817"
       style="fill:#ffffff;fill-opacity:1;stroke:#000000;stroke-width:0.529167;stroke-linecap:round;stroke-miterlimit:4;stroke-dasharray:none;stroke-dashoffset:0;stroke-opacity:1;filter:url(#filter1246)" />
    <circle
       r="2.0546346"
       cy="288.4975"
       cx="10.473624"
       id="circle819"
       style="fill:#ffffff;fill-opacity:1;stroke:#000000;stroke-width:0.529167;stroke-linecap:round;stroke-miterlimit:4;stroke-dasharray:none;stroke-dashoffset:0;stroke-opacity:1;filter:url(#filter1246)" />
  </g>
  <g
     inkscape:groupmode="layer"
     id="g1184"
     inkscape:label="Check"
     style="display:none">
    <rect
       style="display:inline;fill:none;fill-opacity:1;stroke:#808080;stroke-width:0.264583;stroke-linecap:round;stroke-miterlimit:4;stroke-dasharray:none;stroke-dashoffset:0;stroke-opacity:1"
       id="rect1182"
       width="14.367677"
       height="14.367677"
       x="1.2828279"
       y="1.2828279" />
  </g>
  <g
     inkscape:groupmode="layer"
     id="layer6"
     inkscape:label="Check Yes"
     style="display:none">
    <path
       style="color:#000000;display:inline;fill:#008040;fill-opacity:1;fill-rule:evenodd;stroke:none;-inkscape-stroke:none;filter:url(#filter1246)"
       d="M 12.75,0.61328125 C 9.7474291,4.8410048 8.6592017,8.2618633 7.515625,12.6875 6.6375344,11.161756 5.829726,9.6174919 4.6669263,8.9430336 3.5041265,8.2685754 3.259006,8.5735116 3.0769037,8.9186736 c -0.1821024,0.345162 -0.02534,0.8619798 0.8364053,1.4175944 0.8617451,0.555615 2.1926323,2.104522 3.2097379,4.261388 l 0.7910156,1.679688 0.4492188,-1.800781 C 9.6735585,9.2132683 10.139779,5.5010976 12.915668,0.76386264 Z"
       id="path16729"
       sodipodi:nodetypes="cczzzccccc" />
  </g>
  <g
     inkscape:groupmode="layer"
     id="layer7"
     inkscape:label="Check No"
     style="display:none">
    <g
       id="g16688"
       style="display:inline;filter:url(#filter1246)"
       inkscape:export-filename="/home/vlad/prj/HP_GasMix/src/qml/images/Def0.png"
       inkscape:export-xdpi="54"
       inkscape:export-ydpi="54">
      <path
         d="m 10.651446,15.339917 c 0.270881,-0.470592 0.285652,-1.180461 -0.181562,-1.589907 -0.467214,-0.409447 -1.1052906,-0.01218 -1.3833682,0.520464 -0.2780776,0.532644 -0.3584239,1.083254 0.074548,1.49584 0.5376987,0.355729 1.2711312,-0.055 1.4903822,-0.426397 z"
         id="path15524"
         style="fill:#ff0040;fill-opacity:1;stroke:none;stroke-width:0.785019;stroke-miterlimit:4;stroke-dasharray:none;stroke-opacity:1" />
      <path
         style="color:#000000;fill:#ff0040;fill-opacity:1;stroke-linecap:round;-inkscape-stroke:none"
         d="M 9.8183594,0.58203125 C 8.6943951,0.36815389 7.8731649,0.83392207 7.2851562,1.2109375 l -0.00195,0.00195 -0.00391,0.00195 C 6.50559,1.7249428 5.7874089,2.4911397 5.4140625,3.4042969 5.2273893,3.8608755 4.9724006,4.4309893 5.0603825,4.9476618 5.1483645,5.4643343 5.382757,5.9286063 5.84714,6.309296 6.1410063,6.5506262 6.7883324,6.4836194 7.0292969,6.1894532 7.2693025,5.8958885 7.2264973,5.4634684 6.9335939,5.2226563 6.6910346,5.0238122 6.608086,4.8512291 6.5742187,4.6523437 6.5403515,4.4534584 6.5728253,4.2062607 6.6875,3.9257813 6.9160726,3.3667221 7.3406353,2.5712019 7.8892951,2.2077088 8.470513,1.8349346 8.8553523,1.7267108 9.56974,1.8626504 9.7508362,1.897111 10.213753,2.2475486 10.455078,2.7207031 10.696403,3.1938576 10.795729,3.840075 10.34375,4.7773437 9.8666933,5.7666153 8.9242213,6.9852082 8.2558594,8.2519531 7.9216784,8.8853256 7.6509579,9.5421642 7.5722656,10.238281 c -0.078692,0.696117 0.069182,1.445998 0.5410157,2.082032 0.2264082,0.305458 0.6576783,0.369318 0.9628906,0.142578 C 9.3816307,12.236483 9.0756323,12.211013 8.8488922,11.905801 8.58479,11.54979 8.4961876,10.801467 8.5445693,10.373479 8.5929511,9.9454907 8.9819408,9.2315849 9.2734348,8.6791171 9.8564225,7.5741814 11.238763,6.7255858 11.821005,5.5181914 12.428325,4.2587942 12.391316,2.8884739 11.961007,2.0447881 11.530697,1.2011024 10.556861,0.72255956 9.8183594,0.58203125 Z"
         id="path6688"
         sodipodi:nodetypes="scccsscccsscssssscccsssss" />
    </g>
  </g>
  <g
     inkscape:groupmode="layer"
     id="layer2"
     inkscape:label="Stop"
     style="display:none">
    <rect
       style="fill:#ff4040;fill-opacity:1;stroke:#000000;stroke-width:0.264583;stroke-linecap:round;stroke-miterlimit:4;stroke-dasharray:none;stroke-dashoffset:0;stroke-opacity:1;filter:url(#filter1246)"
       id="rect898"
       width="8.4666662"
       height="8.4666662"
       x="4.2333331"
       y="4.2333331" />
  </g>
  <g
     inkscape:groupmode="layer"
     id="layer3"
     inkscape:label="Step"
     style="display:none">
    <path
       style="fill:#ffff40;fill-opacity:1;fill-rule:evenodd;stroke:#000000;stroke-width:0.199107px;stroke-linecap:butt;stroke-linejoin:miter;stroke-opacity:1;filter:url(#filter1246)"
       d="M 3.6881029,3.6881032 10.05952,8.4666665 3.6881029,13.24523 Z"
       id="path1249"
       inkscape:connector-curvature="0" />
    <path
       style="display:inline;fill:#fff340;fill-opacity:1;fill-rule:evenodd;stroke:#000000;stroke-width:0.199107px;stroke-linecap:butt;stroke-linejoin:miter;stroke-opacity:1;filter:url(#filter1246)"
       d="M 11.652376,3.6881032 H 13.24523 V 13.24523 h -1.592854 z"
       id="path1251"
       inkscape:connector-curvature="0" />
  </g>
  <g
     inkscape:groupmode="layer"
     id="layer4"
     inkscape:label="Play"
     style="display:none">
    <path
       style="fill:#40ff40;fill-opacity:1;fill-rule:evenodd;stroke:#000000;stroke-width:0.264583px;stroke-linecap:butt;stroke-linejoin:miter;stroke-opacity:1;filter:url(#filter1246)"
       d="M 4.2333333,2.1166668 12.7,8.4666666 4.2333333,14.816666 Z"
       id="path1254"
       inkscape:connector-curvature="0" />
  </g>
  <g
     inkscape:groupmode="layer"
     id="layer5"
     inkscape:label="Main"
     style="display:inline">
    <g
       id="g30303">
      <circle
         style="fill:#ffffff;fill-opacity:1;stroke:#000000;stroke-width:0.264583;stroke-linecap:round;stroke-miterlimit:4;stroke-dasharray:none;stroke-opacity:1"
         id="path20610"
         cx="12.422707"
         cy="4.4672542"
         r="4.2496972" />
      <ellipse
         style="fill:url(#radialGradient27130);fill-opacity:1;stroke:#000000;stroke-width:0.132292;stroke-linecap:round;stroke-miterlimit:4;stroke-dasharray:none;stroke-opacity:1"
         id="circle23437"
         cx="12.372921"
         cy="4.4637709"
         rx="3.7201729"
         ry="3.6740737" />
      <path
         id="ellipse23439"
         style="fill:none;stroke:#000000;stroke-width:0.563563;stroke-linecap:butt;stroke-linejoin:bevel;stroke-miterlimit:3;stroke-dasharray:0.563563, 1.69069;stroke-dashoffset:0;stroke-opacity:1;paint-order:normal"
         d="M 10.328467,6.7821282 C 9.726934,6.2657527 9.3252376,5.5223742 9.2659564,4.6743869 9.1473942,2.9784122 10.443391,1.5062335 12.160645,1.3861838 c 1.717255,-0.12005 3.205478,1.1574897 3.32404,2.8534645"
         sodipodi:nodetypes="cssc"
         inkscape:transform-center-x="-0.094156885"
         inkscape:transform-center-y="-0.34577955" />
      <path
         id="path25217"
         style="fill:none;stroke:#555555;stroke-width:0.15875;stroke-linecap:butt;stroke-linejoin:bevel;stroke-miterlimit:3;stroke-dasharray:0.15875, 0.3175;stroke-dashoffset:0;stroke-opacity:1;paint-order:normal"
         d="M 10.032127,6.8043726 C 9.4330468,6.2127164 9.0625081,5.3953508 9.062508,4.4925138 c -10e-8,-1.8056742 1.482155,-3.2694623 3.310485,-3.2694623 1.828331,-2e-7 3.310485,1.463788 3.310485,3.2694623"
         sodipodi:nodetypes="cssc" />
      <path
         id="path25241"
         style="fill:#ff0002;fill-opacity:1;stroke:none;stroke-width:0.264583;stroke-linejoin:bevel;stroke-miterlimit:3;stroke-dasharray:none"
         inkscape:transform-center-x="0.23705212"
         inkscape:transform-center-y="-0.67376282"
         d="M 12.383764,5.5471632 12.061325,4.3103894 10.887173,2.1811178 12.489909,3.9971667 13.517342,4.6959064 12.69758,4.804797 Z"
         sodipodi:nodetypes="ccccccc" />
    </g>
    <path
       id="path20714"
       style="display:inline;fill:url(#linearGradient37820);fill-opacity:1;stroke:#000000;stroke-width:0.999999;stroke-linecap:round;stroke-miterlimit:4;stroke-dasharray:none;stroke-opacity:1"
       d="m 21.521484,22.029297 h -8.035156 v 8.103515 h 8.035156 l 13.197266,-0.580078 6.869141,-0.123046 -0.05469,-6.951172 -6.814453,-0.06641 z"
       transform="scale(0.26458333)"
       sodipodi:nodetypes="ccccccccc" />
    <path
       id="rect20820"
       style="display:inline;fill:#000000;fill-opacity:1;stroke-width:1.32292;stroke-linecap:round"
       d="M 0.380688,5.1786247 4.8764295,5.4451939 4.9175324,8.3467817 0.43054236,8.6779702 Z"
       sodipodi:nodetypes="ccccc" />
    <path
       id="path30507"
       style="display:inline;fill:url(#radialGradient30521);fill-opacity:1;stroke:#000000;stroke-width:0.5;stroke-linecap:round;stroke-miterlimit:4;stroke-dasharray:none;stroke-opacity:0.5"
       d="M 19.25,46.894531 C 13.006224,50.218759 9.0051446,56.746408 9.0019531,63.953125 H 47.685547 C 47.680235,56.733499 43.666706,50.210627 37.431641,46.894531 Z"
       transform="scale(0.26458333)" />
    <path
       id="path34844"
       style="display:inline;fill:url(#radialGradient36980);fill-opacity:1;stroke:#000000;stroke-width:0.5;stroke-linecap:round;stroke-miterlimit:4;stroke-dasharray:none;stroke-opacity:1"
       d="m 27.980469,13.410156 c -2.872041,0.03755 -5.730249,1.707465 -6.458985,5.482422 v 3.136719 c 2.492531,2.14063 2.671318,6.028642 0,8.103515 l 0.0018,15.579413 C 19.425661,45.14561 19.299951,45.9068 19.25,46.894531 h 18.181641 c -0.0011,-1.022082 -1.206529,-1.478925 -2.712891,-1.1875 V 29.552734 c -3.114537,-2.027654 -2.31443,-5.689771 -2e-6,-7.140628 v -3.519531 c -0.210564,-3.470439 -3.483301,-5.524974 -6.738281,-5.482422 z"
       transform="scale(0.26458333)"
       sodipodi:nodetypes="sccccccccccss" />
    <path
       style="display:inline;fill:none;fill-rule:evenodd;stroke:#000000;stroke-width:0.264583px;stroke-linecap:butt;stroke-linejoin:miter;stroke-opacity:1"
       d="M 5.6872097,12.061284 H 9.1932796"
       id="path34225" />
  </g>
</svg>
